…
Calculate the number of distinct stations. Selects station name and
line, and then uses `distinct()` to obtain all unique combinations.

``` r
nyc_df |> 
  select(station_name, line) |> 
  distinct()
## # A tibble: 465 × 2
##    station_name             line    
##    <chr>                    <chr>   
##  1 25th St                  4 Avenue
##  2 36th St                  4 Avenue
##  3 45th St                  4 Avenue
##  4 53rd St                  4 Avenue
##  5 59th St                  4 Avenue
##  6 77th St                  4 Avenue
##  7 86th St                  4 Avenue
##  8 95th St                  4 Avenue
##  9 9th St                   4 Avenue
## 10 Atlantic Av-Barclays Ctr 4 Avenue
## # ℹ 455 more rows
```

There are 465 distinct stations.

Calculate the number of stations are ADA compliant.

``` r
nyc_df |> 
  filter(ada == TRUE) |> 
  select(station_name, line) |> 
  distinct()
## # A tibble: 84 × 2
##    station_name                   line           
##    <chr>                          <chr>          
##  1 Atlantic Av-Barclays Ctr       4 Avenue       
##  2 DeKalb Av                      4 Avenue       
##  3 Pacific St                     4 Avenue       
##  4 Grand Central                  42nd St Shuttle
##  5 34th St                        6 Avenue       
##  6 47-50th Sts Rockefeller Center 6 Avenue       
##  7 Church Av                      6 Avenue       
##  8 21st St                        63rd Street    
##  9 Lexington Av                   63rd Street    
## 10 Roosevelt Island               63rd Street    
## # ℹ 74 more rows
```
…
Read and clean the data for Gwynnda Trash Wheel

``` r
clean_gwynnda =
    read_excel("./data/202409_Trash_Wheel_Collection_Data.xlsx", sheet = "Gwynnda Trash Wheel") %>%
    janitor::clean_names() %>% 
    filter(!is.na(dumpster)) %>%
    mutate(year = as.numeric(year))

print(clean_gwynnda)
## # A tibble: 263 × 12
##    dumpster month   year date                weight_tons volume_cubic_yards
##       <dbl> <chr>  <dbl> <dttm>                    <dbl>              <dbl>
##  1        1 July    2021 2021-07-03 00:00:00        0.93                 15
##  2        2 July    2021 2021-07-07 00:00:00        2.26                 15
##  3        3 July    2021 2021-07-07 00:00:00        1.62                 15
##  4        4 July    2021 2021-07-16 00:00:00        1.76                 15
##  5        5 July    2021 2021-07-30 00:00:00        1.53                 15
##  6        6 August  2021 2021-08-11 00:00:00        2.06                 15
##  7        7 August  2021 2021-08-14 00:00:00        1.9                  15
##  8        8 August  2021 2021-08-16 00:00:00        2.16                 15
##  9        9 August  2021 2021-08-16 00:00:00        2.6                  15
## 10       10 August  2021 2021-08-17 00:00:00        3.21                 15
## # ℹ 253 more rows
## # ℹ 6 more variables: plastic_bottles <dbl>, polystyrene <dbl>,
## #   cigarette_butts <dbl>, plastic_bags <dbl>, wrappers <dbl>,
## #   homes_powered <dbl>
```
…
merge the data bakers and bakes on series and baker.

``` r
merged_data = bakes %>%
  left_join(bakers, by = c("series" = "series", "baker" = "baker_name"))

final_data = merged_data %>%
  left_join(results, by = c("series" = "series", "episode" = "episode", "baker" = "baker"))

print(final_data)
## # A tibble: 548 × 10
##    baker   series episode signature_bake show_stopper baker_age baker_occupation
##    <chr>    <dbl>   <dbl> <chr>          <chr>            <dbl> <chr>           
##  1 Annetha      1       1 "Light Jamaic… Red, White …        NA <NA>            
##  2 David        1       1 "Chocolate Or… Black Fores…        NA <NA>            
##  3 Edd          1       1 "Caramel Cinn… <NA>                NA <NA>            
##  4 Jasmin…      1       1 "Fresh Mango … <NA>                NA <NA>            
##  5 Jonath…      1       1 "Carrot Cake … Three Tiere…        NA <NA>            
##  6 Lea          1       1 "Cranberry an… Raspberries…        NA <NA>            
##  7 Louise       1       1 "Carrot and O… Never Fail …        NA <NA>            
##  8 Mark         1       1 "Sticky Marma… Heart-shape…        NA <NA>            
##  9 Miranda      1       1 "Triple Layer… Three Tiere…        NA <NA>            
## 10 Ruth         1       1 "Three Tiered… Classic Cho…        NA <NA>            
## # ℹ 538 more rows
## # ℹ 3 more variables: hometown <chr>, technical <dbl>, result <chr>
write_csv(final_data, "final_data.csv")
```

Create a table to show the Star Bakers and Winners.

``` r
star_bakers = final_data %>%
  filter(result %in% c('STAR BAKER', 'WINNER')) %>%
  select(series, episode, baker, result)

star_bakers_seasons = star_bakers %>%
  filter(series >= 5 & series <= 10)

print(star_bakers_seasons)
## # A tibble: 40 × 4
##    series episode baker   result    
##     <dbl>   <dbl> <chr>   <chr>     
##  1      5       1 Nancy   STAR BAKER
##  2      5       2 Richard STAR BAKER
##  3      5       3 Luis    STAR BAKER
##  4      5       4 Richard STAR BAKER
##  5      5       5 Kate    STAR BAKER
##  6      5       6 Chetna  STAR BAKER
##  7      5       7 Richard STAR BAKER
##  8      5       8 Richard STAR BAKER
##  9      5       9 Richard STAR BAKER
## 10      5      10 Nancy   WINNER    
## # ℹ 30 more rows
```
…
